HW2
…
There seems to be a linear relationship between SES and Score.

Q4

## # A tibble: 159 x 4
##    School   SES Score Number
##     <int> <dbl> <dbl>  <int>
##  1   1224  5.22 11.3       6
##  2   1288  7.07 17.5       6
##  3   1296  5.10 11.0       6
##  4   1308  7.55 18.2       4
##  5   1317  7.42 16.2       8
##  6   1358  5.72 12.5       6
##  7   1374  6.10  6.50      2
##  8   1433  7.24 19.6       7
##  9   1436  7.61 19.1       9
## 10   1461  7.48 16.7       6
## # ... with 149 more rows
…
